Homework for the week 4 lab: R basics – ENTMLGY6703-SP26 - Jelmer’s lectures
…
Rows: 22 Columns: 3
── Column specification ────────────────────────────────────────────────────────
Delimiter: "\t"
chr (2): sample_id, treatment
dbl (1): dpi

ℹ Use `spec()` to retrieve the full column specification for this data.
ℹ Specify the column types or set `show_col_types = FALSE` to quiet this message.

Some info about how it interpreted the data is printed, especially about the data types of different columns (see the box below). Take a look at the resulting data frame meta:

meta

# A tibble: 22 × 3
   sample_id     dpi treatment  
   <chr>       <dbl> <chr>      
 1 ERR10802864     1 cathemerium
 2 ERR10802867     1 cathemerium
 3 ERR10802870     1 cathemerium
 4 ERR10802866     1 control    
 5 ERR10802869     1 control    
 6 ERR10802863     1 control    
 7 ERR10802871     1 relictum   
 8 ERR10802874     1 relictum   
 9 ERR10802865     1 relictum   
10 ERR10802868     1 relictum   
# ℹ 12 more rows

Tibble??

The data frame is a so-called “tibble”, as the top of the output above says. This is a modern take on data frames provided by the tidyverse. Tibbles behave mostly like data frames, but have some nice features mostly in the way they are printed to screen.

For example, the “data types” of columns are shown at the top of the output above, where chr means character (text data) and dbl means double (numeric data; other data types exist as well).

13.2 select() to pick columns

The select() function subsets a data frame by including/excluding certain columns. By default, it only includes the columns you specify:

select(.data = meta, sample_id, treatment)

# A tibble: 22 × 2
   sample_id   treatment  
   <chr>       <chr>      
 1 ERR10802864 cathemerium
 2 ERR10802867 cathemerium
 3 ERR10802870 cathemerium
 4 ERR10802866 control    
 5 ERR10802869 control    
 6 ERR10802863 control    
 7 ERR10802871 relictum   
 8 ERR10802874 relictum   
 9 ERR10802865 relictum   
10 ERR10802868 relictum   
# ℹ 12 more rows
…
